[Event "?"]
[Site "?"]
[Date "????.??.??"]
[Round "?"]
[White "1401"]
[Black "?"]
[Result "*"]
[FEN "3q1r1k/6pp/4Qb2/3B2N1/8/PP6/KP6/8 w - - 0 1"]
[SetUp "1"]

*


[Event "?"]
[Site "?"]
[Date "????.??.??"]
[Round "?"]
[White "1402"]
[Black "?"]
[Result "*"]
[FEN "3r1N1k/6p1/5nQp/3Bq3/8/PP6/KP6/8 w - - 0 1"]
[SetUp "1"]

*


[Event "?"]
[Site "?"]
[Date "????.??.??"]
[Round "?"]
[White "1403"]
[Black "?"]
[Result "*"]
[FEN "3rr2k/6pp/8/3Qq1N1/4P3/PP6/KP6/8 w - - 0 1"]
[SetUp "1"]

*


[Event "?"]
[Site "?"]
[Date "????.??.??"]
[Round "?"]
[White "1404"]
[Black "?"]
[Result "*"]
[FEN "6R1/3r1r1p/3q2pk/4Q3/6P1/PP6/KP6/8 w - - 0 1"]
[SetUp "1"]

*


[Event "?"]
[Site "?"]
[Date "????.??.??"]
[Round "?"]
[White "1405"]
[Black "?"]
[Result "*"]
[FEN "5k1r/4n1p1/3nQN2/6N1/3q4/PP6/KP6/8 w - - 0 1"]
[SetUp "1"]

*


[Event "?"]
[Site "?"]
[Date "????.??.??"]
[Round "?"]
[White "1406"]
[Black "?"]
[Result "*"]
[FEN "8/3P2k1/5p2/6b1/3pK3/8/8/8 w - - 0 1"]
[SetUp "1"]

*


[Event "?"]
[Site "?"]
[Date "????.??.??"]
[Round "?"]
[White "1407"]
[Black "?"]
[Result "*"]
[FEN "3qr1kr/5b1p/3B2pQ/5N1n/8/PP6/KP6/8 w - - 0 1"]
[SetUp "1"]

*


[Event "?"]
[Site "?"]
[Date "????.??.??"]
[Round "?"]
[White "1408"]
[Black "?"]
[Result "*"]
[FEN "4rk1r/5ppp/8/3Q1N2/8/PP6/KP6/8 w - - 0 1"]
[SetUp "1"]

*


[Event "?"]
[Site "?"]
[Date "????.??.??"]
[Round "?"]
[White "1409"]
[Black "?"]
[Result "*"]
[FEN "3R2R1/4bp1k/7P/5nP1/4qB2/PP6/KP6/8 w - - 0 1"]
[SetUp "1"]

*


[Event "?"]
[Site "?"]
[Date "????.??.??"]
[Round "?"]
[White "1410"]
[Black "?"]
[Result "*"]
[FEN "3r2rk/6p1/5n1p/5Q2/3q3N/PP6/KP6/8 w - - 0 1"]
[SetUp "1"]

*


[Event "?"]
[Site "?"]
[Date "????.??.??"]
[Round "?"]
[White "1411"]
[Black "?"]
[Result "*"]
[FEN "7k/4pr1n/5qPQ/4rN2/7R/PP6/KP6/8 w - - 0 1"]
[SetUp "1"]

*


[Event "?"]
[Site "?"]
[Date "????.??.??"]
[Round "?"]
[White "1412"]
[Black "?"]
[Result "*"]
[FEN "3q1k2/3rRp1p/6p1/6Q1/6PP/PP6/KP6/8 w - - 0 1"]
[SetUp "1"]

*


[Event "?"]
[Site "?"]
[Date "????.??.??"]
[Round "?"]
[White "1413"]
[Black "?"]
[Result "*"]
[FEN "5Kbk/6pp/6P1/8/7R/8/8/8 w - - 0 1"]
[SetUp "1"]

*


[Event "?"]
[Site "?"]
[Date "????.??.??"]
[Round "?"]
[White "1414"]
[Black "?"]
[Result "*"]
[FEN "3qr2r/6pk/4Q1Rp/5p2/3P1B2/PP6/KP6/8 w - - 0 1"]
[SetUp "1"]

*


[Event "?"]
[Site "?"]
[Date "????.??.??"]
[Round "?"]
[White "1415"]
[Black "?"]
[Result "*"]
[FEN "4nrkn/3q1p1p/6pQ/3b1N2/4R3/PP6/KP6/8 w - - 0 1"]
[SetUp "1"]

*


[Event "?"]
[Site "?"]
[Date "????.??.??"]
[Round "?"]
[White "1416"]
[Black "?"]
[Result "*"]
[FEN "5r2/5pk1/6p1/4qPQ1/7R/PP6/KP6/8 w - - 0 1"]
[SetUp "1"]

*


